%YAML 1.1
%TAG !u! tag:unity3d.com,2011:
--- !u!1045 &1
EditorBuildSettings:
  m_ObjectHideFlags: 0
  serializedVersion: 2
  m_Scenes:
  - enabled: 1
    path: Assets/NetworkAutoLaunch/Scene/0. DesignBy.unity
    guid: 7363984d052538a459a911b038cf7839
  - enabled: 1
    path: Assets/NetworkAutoLaunch/Scene/1. ResourceScene.unity
    guid: 69a07c7a6ff63a247bf63b2c64c511e3
  - enabled: 1
    path: Assets/NetworkAutoLaunch/Scene/2. ChooseNetworkSystem.unity
    guid: ddcb4d6d1c5f2bb40ade05179a1e669a
  - enabled: 1
    path: Assets/NetworkAutoLaunch/Scene/3a. HostManager.unity
    guid: 6263880ded5f5884b91c8756d75c6efe
  - enabled: 1
    path: Assets/NetworkAutoLaunch/Scene/3b. LobbyManager.unity
    guid: 946ad2d0310acab45bff97bcdcfc133d
  - enabled: 1
    path: Assets/NetworkAutoLaunch/Scene/4a. HostOnline.unity
    guid: cd54af8c001d35c4683e06e2845549cf
